%YAML 1.1
%TAG !u! tag:unity3d.com,2011:
--- !u!114 &307550439
MonoBehaviour:
  m_ObjectHideFlags: 0
  m_CorrespondingSourceObject: {fileID: 0}
  m_PrefabInstance: {fileID: 0}
  m_PrefabAsset: {fileID: 0}
  m_GameObject: {fileID: 5877126371369682658}
  m_Enabled: 1
  m_EditorHideFlags: 0
  m_Script: {fileID: 11500000, guid: bae48f4bf7894ae99d3ec47c1476c47a, type: 3}
  m_Name: 
  m_EditorClassIdentifier: 
  instanceCount: 50
  timeToLive: 0.1
--- !u!1001 &3123089613218110453
PrefabInstance:
  m_ObjectHideFlags: 0
  serializedVersion: 2
  m_Modification:
    m_TransformParent: {fileID: 0}
    m_Modifications:
    - target: {fileID: 8852051838447508757, guid: ef723f513fd6c764cb5bbc5f6149064c,
        type: 3}
      propertyPath: m_LocalPosition.x
      value: -0.3459147
      objectReference: {fileID: 0}
    - target: {fileID: 8852051838447508757, guid: ef723f513fd6c764cb5bbc5f6149064c,
        type: 3}
      propertyPath: m_LocalPosition.y
      value: 0.20353544
      objectReference: {fileID: 0}
    - target: {fileID: 8852051838447508757, guid: ef723f513fd6c764cb5bbc5f6149064c,
        type: 3}
      propertyPath: m_LocalPosition.z
      value: -1.339345
      objectReference: {fileID: 0}
    - target: {fileID: 8852051838447508757, guid: ef723f513fd6c764cb5bbc5f6149064c,
        type: 3}
      propertyPath: m_LocalRotation.x
      value: 0
      objectReference: {fileID: 0}
    - target: {fileID: 8852051838447508757, guid: ef723f513fd6c764cb5bbc5f6149064c,
        type: 3}
      propertyPath: m_LocalRotation.y
      value: 0
      objectReference: {fileID: 0}
    - target: {fileID: 8852051838447508757, guid: ef723f513fd6c764cb5bbc5f6149064c,
        type: 3}
      propertyPath: m_LocalRotation.z
      value: 0
      objectReference: {fileID: 0}
    - target: {fileID: 8852051838447508757, guid: ef723f513fd6c764cb5bbc5f6149064c,
        type: 3}
      propertyPath: m_LocalRotation.w
      value: 1
      objectReference: {fileID: 0}
    - target: {fileID: 8852051838447508757, guid: ef723f513fd6c764cb5bbc5f6149064c,
        type: 3}
      propertyPath: m_RootOrder
      value: 0
      objectReference: {fileID: 0}
    - target: {fileID: 8852051838447508757, guid: ef723f513fd6c764cb5bbc5f6149064c,
        type: 3}
      propertyPath: m_LocalEulerAnglesHint.x
      value: 0
      objectReference: {fileID: 0}
    - target: {fileID: 8852051838447508757, guid: ef723f513fd6c764cb5bbc5f6149064c,
        type: 3}
      propertyPath: m_LocalEulerAnglesHint.y
      value: 0
      objectReference: {fileID: 0}
    - target: {fileID: 8852051838447508757, guid: ef723f513fd6c764cb5bbc5f6149064c,
        type: 3}
      propertyPath: m_LocalEulerAnglesHint.z
      value: 0
      objectReference: {fileID: 0}
    - target: {fileID: 8852051838447508759, guid: ef723f513fd6c764cb5bbc5f6149064c,
        type: 3}
      propertyPath: m_Name
      value: ShotgunBullet
      objectReference: {fileID: 0}
    m_RemovedComponents:
    - {fileID: 8852051838447508746, guid: ef723f513fd6c764cb5bbc5f6149064c, type: 3}
  m_SourcePrefab: {fileID: 100100000, guid: ef723f513fd6c764cb5bbc5f6149064c, type: 3}
--- !u!1 &5877126371369682658 stripped
GameObject:
  m_CorrespondingSourceObject: {fileID: 8852051838447508759, guid: ef723f513fd6c764cb5bbc5f6149064c,
    type: 3}
  m_PrefabInstance: {fileID: 3123089613218110453}
  m_PrefabAsset: {fileID: 0}
