%YAML 1.1
%TAG !u! tag:unity3d.com,2011:
--- !u!114 &6955993019867724668
MonoBehaviour:
  m_ObjectHideFlags: 0
  m_CorrespondingSourceObject: {fileID: 0}
  m_PrefabInstance: {fileID: 0}
  m_PrefabAsset: {fileID: 0}
  m_GameObject: {fileID: 8733837908931918599}
  m_Enabled: 1
  m_EditorHideFlags: 0
  m_Script: {fileID: 11500000, guid: 98ea5c22aa594bdbb2d835052018c832, type: 3}
  m_Name: 
  m_EditorClassIdentifier: 
  damage: 20
  bulletSpeed: 10
  shootCoolDown: 0.5
  bulletPrefab: {fileID: 8852051838447508746, guid: ef723f513fd6c764cb5bbc5f6149064c,
    type: 3}
--- !u!1001 &6146164281644145374
PrefabInstance:
  m_ObjectHideFlags: 0
  serializedVersion: 2
  m_Modification:
    m_TransformParent: {fileID: 0}
    m_Modifications:
    - target: {fileID: 3206383250623734946, guid: df6adcda06c9eec48bf45f9fdbf6165d,
        type: 3}
      propertyPath: m_Sprite
      value: 
      objectReference: {fileID: 21300000, guid: b1881a348fd78d546af45ce592c7247b,
        type: 3}
    - target: {fileID: 3206383251865067993, guid: df6adcda06c9eec48bf45f9fdbf6165d,
        type: 3}
      propertyPath: m_Name
      value: Rifle
      objectReference: {fileID: 0}
    - target: {fileID: 3206383251865067993, guid: df6adcda06c9eec48bf45f9fdbf6165d,
        type: 3}
      propertyPath: m_IsActive
      value: 1
      objectReference: {fileID: 0}
    - target: {fileID: 3206383251865067998, guid: df6adcda06c9eec48bf45f9fdbf6165d,
        type: 3}
      propertyPath: m_LocalPosition.x
      value: 0.2
      objectReference: {fileID: 0}
    - target: {fileID: 3206383251865067998, guid: df6adcda06c9eec48bf45f9fdbf6165d,
        type: 3}
      propertyPath: m_LocalPosition.y
      value: 0.21
      objectReference: {fileID: 0}
    - target: {fileID: 3206383251865067998, guid: df6adcda06c9eec48bf45f9fdbf6165d,
        type: 3}
      propertyPath: m_LocalPosition.z
      value: 0
      objectReference: {fileID: 0}
    - target: {fileID: 3206383251865067998, guid: df6adcda06c9eec48bf45f9fdbf6165d,
        type: 3}
      propertyPath: m_LocalRotation.x
      value: 0
      objectReference: {fileID: 0}
    - target: {fileID: 3206383251865067998, guid: df6adcda06c9eec48bf45f9fdbf6165d,
        type: 3}
      propertyPath: m_LocalRotation.y
      value: 0
      objectReference: {fileID: 0}
    - target: {fileID: 3206383251865067998, guid: df6adcda06c9eec48bf45f9fdbf6165d,
        type: 3}
      propertyPath: m_LocalRotation.z
      value: 0
      objectReference: {fileID: 0}
    - target: {fileID: 3206383251865067998, guid: df6adcda06c9eec48bf45f9fdbf6165d,
        type: 3}
      propertyPath: m_LocalRotation.w
      value: 1
      objectReference: {fileID: 0}
    - target: {fileID: 3206383251865067998, guid: df6adcda06c9eec48bf45f9fdbf6165d,
        type: 3}
      propertyPath: m_RootOrder
      value: 0
      objectReference: {fileID: 0}
    - target: {fileID: 3206383251865067998, guid: df6adcda06c9eec48bf45f9fdbf6165d,
        type: 3}
      propertyPath: m_LocalEulerAnglesHint.x
      value: 0
      objectReference: {fileID: 0}
    - target: {fileID: 3206383251865067998, guid: df6adcda06c9eec48bf45f9fdbf6165d,
        type: 3}
      propertyPath: m_LocalEulerAnglesHint.y
      value: 0
      objectReference: {fileID: 0}
    - target: {fileID: 3206383251865067998, guid: df6adcda06c9eec48bf45f9fdbf6165d,
        type: 3}
      propertyPath: m_LocalEulerAnglesHint.z
      value: 0
      objectReference: {fileID: 0}
    m_RemovedComponents:
    - {fileID: -8766951847960031754, guid: df6adcda06c9eec48bf45f9fdbf6165d, type: 3}
  m_SourcePrefab: {fileID: 100100000, guid: df6adcda06c9eec48bf45f9fdbf6165d, type: 3}
--- !u!1 &8733837908931918599 stripped
GameObject:
  m_CorrespondingSourceObject: {fileID: 3206383251865067993, guid: df6adcda06c9eec48bf45f9fdbf6165d,
    type: 3}
  m_PrefabInstance: {fileID: 6146164281644145374}
  m_PrefabAsset: {fileID: 0}
